Name,WeightClassKg,Best3SquatKg,Best3BenchKg,Best3DeadliftKg,TotalKg,Event,Equipment,Sex,Division,AgeRange,Place
K. Parker,67.5,61.23,113.4,138.35,312.98,SBD,Single-ply,M,Open,0-999,1
J. Meade,75,131.54,170.1,185.97,487.61,SBD,Single-ply,M,Open,0-999,1
A. Alfred,82.5,124.74,226.8,226.8,578.33,SBD,Single-ply,M,Open,0-999,1
M. Bellot,90,124.74,181.44,181.44,487.61,SBD,Single-ply,M,Open,0-999,1
C. Hughes,110,158.76,249.48,247.21,655.44,SBD,Single-ply,M,Open,0-999,1
J. Wallace,110,158.76,226.8,206.38,591.94,SBD,Single-ply,M,Open,0-999,2
C. Sharp,125,170.1,256.28,272.16,698.53,SBD,Single-ply,M,Open,0-999,1
S. Davis,125+,181.44,249.48,272.16,703.07,SBD,Single-ply,M,Open,0-999,1
H. Cherry,125+,72.57,113.4,136.08,322.05,SBD,Single-ply,M,Open,0-999,2
