Division,WeightClassKg,Place,Name,Team,BodyweightKg,Best3SquatKg,Best3BenchKg,Best3DeadliftKg,TotalKg,Equipment,Event,Sex
Boys,51.71,1,Kenneth Kirbow,Kirbyville,45.36,72.57,47.63,86.18,206.38,Single-ply,SBD,M
Boys,51.71,2,Corey Frazier,Jasper,43.09,72.57,38.56,92.99,204.12,Single-ply,SBD,M
Boys,59.87,1,Deroddrick Hadnot,Jasper,59.42,165.56,99.79,158.76,424.11,Single-ply,SBD,M
Boys,59.87,2,James Rhodes,Kirbyville,59.42,131.54,83.91,149.69,365.14,Single-ply,SBD,M
Boys,59.87,3,Brad Shivers,Jasper,59.87,113.4,81.65,131.54,326.59,Single-ply,SBD,M
Boys,59.87,4,Coy Draper,Jasper,59.87,113.4,77.11,131.54,322.05,Single-ply,SBD,M
Boys,59.87,5,Chris Horn,Jasper,59.87,83.91,49.9,113.4,247.21,Single-ply,SBD,M
Boys,59.87,6,DeMarcus Newman,Newton,57.61,86.18,54.43,104.33,244.94,Single-ply,SBD,M
Boys,59.87,DQ,Jordan Holsonback,Kirbyville,59.87,,,,,Single-ply,SBD,M
Boys,67.13,1,Chance Mays,Jasper,67.13,165.56,83.91,181.44,430.91,Single-ply,SBD,M
Boys,67.13,2,Decorian Smith,Kirbyville,67.13,151.95,104.33,172.37,428.64,Single-ply,SBD,M
Boys,67.13,3,Clayton Sexton,Kirbyville,66.68,147.42,88.45,165.56,401.43,Single-ply,SBD,M
Boys,67.13,4,Dakota Faulk,Beckville,67.13,127.01,68.04,165.56,360.61,Single-ply,SBD,M
Boys,67.13,5,Justice Luhws,Kirbyville,67.13,131.54,81.65,136.08,349.27,Single-ply,SBD,M
Boys,67.13,6,Cody Antilley,Pineland West Sabine,64.41,127.01,68.04,147.42,342.46,Single-ply,SBD,M
Boys,67.13,7,Marcus Roberts,Newton,64.41,124.74,65.77,149.69,340.19,Single-ply,SBD,M
Boys,67.13,8,Daytrick Hadnot,Jasper,67.13,113.4,79.38,142.88,335.66,Single-ply,SBD,M
Boys,67.13,9,Matt Ashtiani,Jasper,67.13,88.45,72.57,124.74,285.76,Single-ply,SBD,M
Boys,67.13,10,Quinton Owens,Kirbyville,63.96,104.33,77.11,95.25,276.69,Single-ply,SBD,M
Boys,67.13,DQ,Keiandre Haywood,Kirbyville,67.13,,,,,Single-ply,SBD,M
Boys,74.84,1,Michael Byerly,Newton,69.4,172.37,113.4,183.7,469.47,Single-ply,SBD,M
Boys,74.84,2,Brandon Johnson,Newton,69.4,183.7,92.99,183.7,460.4,Single-ply,SBD,M
Boys,74.84,3,Devan Hadnot,Jasper,74.84,156.49,95.25,158.76,410.5,Single-ply,SBD,M
Boys,74.84,4,Corey Jenkins,Newton,73.94,151.95,83.91,165.56,401.43,Single-ply,SBD,M
Boys,74.84,5,Colten Searcy,Beckville,74.84,138.35,92.99,149.69,381.02,Single-ply,SBD,M
Boys,74.84,6,LeDarrion Newman,Newton,70.76,124.74,83.91,156.49,365.14,Single-ply,SBD,M
Boys,74.84,7,Brandon Love,Kirbyville,73.48,124.74,68.04,147.42,340.19,Single-ply,SBD,M
Boys,74.84,8,Dillon Kroner,Kirbyville,73.94,104.33,68.04,140.61,312.98,Single-ply,SBD,M
Boys,74.84,9,Brycton Hughey,Kirbyville,71.21,,90.72,154.22,244.94,Single-ply,BD,M
Boys,74.84,DQ,Burman Ervine,Kirbyville,68.04,,,,,Single-ply,BD,M
Boys,74.84,DQ,Tyler Davis,Newton,68.49,,,,,Single-ply,BD,M
Boys,74.84,DQ,Charles Latham,Pineland West Sabine,70.31,,,,,Single-ply,BD,M
Boys,74.84,DQ,Mark Wagner,Newton,71.67,,,,,Single-ply,BD,M
Boys,82.1,1,Kevin Jones #10,Beckville,82.1,204.12,124.74,201.85,530.7,Single-ply,SBD,M
Boys,82.1,2,Jesse Conn,Pineland West Sabine,77.56,145.15,113.4,208.65,467.2,Single-ply,SBD,M
Boys,82.1,3,Quentin Jacko,Kirbyville,82.1,163.29,102.06,172.37,437.72,Single-ply,SBD,M
Boys,82.1,4,Nick Stott,Jasper,77.11,158.76,104.33,165.56,428.64,Single-ply,SBD,M
Boys,82.1,5,Markeith Cauley,Jasper,82.1,158.76,108.86,158.76,426.38,Single-ply,SBD,M
Boys,82.1,6,Caleb Smith #13,Kirbyville,77.56,122.47,77.11,140.61,340.19,Single-ply,SBD,M
Boys,82.1,7,Jared Pace,Kirbyville,81.19,92.99,92.99,147.42,333.39,Single-ply,SBD,M
Boys,82.1,8,Connor Leavings,Kirbyville,78.02,92.99,63.5,138.35,294.84,Single-ply,SBD,M
Boys,89.81,1,Aaron Breed,Kirbyville,89.36,210.92,136.08,226.8,573.79,Single-ply,SBD,M
Boys,89.81,2,Justin Mays,Jasper,88.45,206.38,104.33,185.97,496.68,Single-ply,SBD,M
Boys,89.81,3,Anthony Hadnot,Newton,85.73,190.51,95.25,190.51,476.27,Single-ply,SBD,M
Boys,89.81,4,Colby Tharp,Kirbyville,88.45,170.1,97.52,163.29,430.91,Single-ply,SBD,M
Boys,89.81,5,Taylor Johnson #5,Pineland West Sabine,88.45,154.22,113.4,158.76,426.38,Single-ply,SBD,M
Boys,89.81,6,Drew Fricano,Kirbyville,86.18,154.22,83.91,183.7,421.84,Single-ply,SBD,M
Boys,89.81,7,Blaine Rhodes,Kirbyville,83.01,127.01,81.65,163.29,371.95,Single-ply,SBD,M
Boys,99.79,1,Terry Jones,Beckville,99.79,249.48,145.15,206.38,601.01,Single-ply,SBD,M
Boys,99.79,2,Aaron Deshazor,Kirbyville,97.98,213.19,122.47,231.33,566.99,Single-ply,SBD,M
Boys,99.79,3,Dillon Bryer,Jasper,99.34,210.92,124.74,210.92,546.58,Single-ply,SBD,M
Boys,99.79,4,Bryce Edwards,Jasper,99.79,165.56,124.74,179.17,469.47,Single-ply,SBD,M
Boys,99.79,5,Aaron Smith,Pineland West Sabine,91.63,163.29,106.59,170.1,439.98,Single-ply,SBD,M
Boys,99.79,6,Paul Szemborski,Newton,98.43,138.35,88.45,142.88,369.68,Single-ply,SBD,M
Boys,99.79,7,Jeremy Williams,Pineland West Sabine,99.79,124.74,79.38,142.88,347,Single-ply,SBD,M
Boys,99.79,8,Tyler Hershberger,Pineland West Sabine,92.99,124.74,83.91,113.4,322.05,Single-ply,SBD,M
Boys,109.77,1,Will Tyler,Kirbyville,107.95,244.94,122.47,217.72,585.13,Single-ply,SBD,M
Boys,109.77,2,Anthony Wade,Jasper,109.77,176.9,108.86,183.7,469.47,Single-ply,SBD,M
Boys,109.77,3,Kevin Houston,Jasper,102.06,183.7,102.06,158.76,444.52,Single-ply,SBD,M
Boys,109.77,DQ,Cameron Kellum,Newton,104.33,,,,,Single-ply,SBD,M
Boys,124.74,1,Krishon Seastrunk,Newton,121.56,272.16,133.81,263.08,669.05,Single-ply,SBD,M
Boys,124.74,2,Victor Angeles,Beckville,124.74,233.6,161.03,192.78,587.4,Single-ply,SBD,M
Boys,124.74,3,Kyle Roth,Kirbyville,122.47,195.04,120.2,226.8,542.04,Single-ply,SBD,M
Boys,124.74,4,Shane Armstrong,Beckville,124.74,192.78,140.61,208.65,542.04,Single-ply,SBD,M
Boys,124.74,5,Jeremy Turk,Kirbyville,124.74,213.19,136.08,188.24,537.51,Single-ply,SBD,M
Boys,124.74,6,Jarred McGill,Jasper,124.74,154.22,111.13,183.7,449.06,Single-ply,SBD,M
Boys,124.74+,1,Jarvis Adams,Jasper,139.71,226.8,131.54,226.8,585.13,Single-ply,SBD,M
