﻿BDFPF BK - CHAMP BEL  POWERLIFTING  2010
Powerlifting Unequipped
                                                                                                                                           BW     SQ     BE     DL                   TOT     POINTS
1                                          1   - 70 KG Lerot        Viviane     V                         Castors          51 M3   65,2    100                       52,5    117,5   270     216,57
1                                          1   - 80 KG Dechamps     Nadege      V                         Castors          14 T1   71,8    150                       92,5    150     392,5   292,22
                                                                                                                                           155                               152,5
1                                          1   60 KG De Vissher     Geovanni    M    Powersport Lebbeke                    16 T2   59,8    125                       80      162,5   367,5   299,73
                                                                                                                                                                             170
1                                          1   75 KG Eeckhout       Laurens     M                         Francos          15 T1   68,5    152,5                     100     167,5   420     300,89
2                                          1   75 KG Callemeyn      Johny       M                         Fit 4 fun        57 M4   72,5    160                       122,5   172,5   455     310,67
3                                          1   75 KG Verret         Danny       M                         Planet fitness   35 SR   71,2    130                       132,5   135     397,5   275,51
1                                          1   82,5 KG Hallewaert   Bart        M                         Isogym           41 M1   77,5    210                       140     235     585     379,02
2                                          1   82,5 KG De Reuze     Benny       M    Powersport Lebbeke                    24 SR   78,2    167,5                     127,5   230     525     337,89
3                                          1   82,5 KG Famaey       Jamy        M    Powersport Lebbeke                    20 JR   78,7    150                       90      215     455     291,43
1                                          1   90 KG Verbeke        Beny        M                         Isogym           45 M2   82,6    232,5                     132,5   290     655     405,31
                                                                                                                                           242,5                             300
1                                          1   125 KG Dechamps      Jerome      M                         Castors          22 JR   122,6   305                       182,5   292,5   780     408,88
                                                                                                                                                                             300
2                                          1   125 KG Dechamps      Sebastien   M                         Castors          17 T2   122,5   300                       157,5   270     727,5   381,43
3                                          1   125 KG Jammaer       Wim         M                         Planet Fitness   27 SR   115,6   205                       155     255     615     326,50
1                                          1   145 KG Goovaerts     Marc        M                         Franco           53 M3   125,5   100                       155     250     505     262,80
NIEUW RECORD / NOUVEAU RECORD
BESTE ATLEET / MEILLEUR ATLETE
17 OKT 2010,Florennes
