Division,WeightClassKg,Place,Name,Team,BodyweightKg,Best3SquatKg,Best3BenchKg,Best3DeadliftKg,TotalKg,Equipment,Event,Sex
Boys,51.71,1,Jason Jones #8,Burleson,46.81,99.79,58.97,136.08,294.84,Single-ply,SBD,M
Boys,51.71,DQ,Dayton Totz,Burleson Centennial,49.67,,,,,Single-ply,SBD,M
Boys,55.79,DQ,Daniel Lombardo,Burleson Centennial,54.88,170.1,,,,Single-ply,SBD,M
Boys,59.87,DQ,Logan Fraser,Cleburne,58.06,,,,,Single-ply,SBD,M
Boys,59.87,DQ,Paul Clark,Joshua,59.51,,,,,Single-ply,SBD,M
Boys,74.84,DQ,Nate Perry,Burleson,67.22,154.22,,,,Single-ply,SBD,M
Boys,67.13,DQ,Patrick Ferguson,Burleson Centennial,66.86,,,,,Single-ply,SBD,M
Boys,74.84,1,Kavin Ma,Burleson,69.31,163.29,90.72,190.51,444.52,Single-ply,SBD,M
Boys,74.84,2,Christian Handy,Burleson Centennial,73.66,158.76,83.91,136.08,378.75,Single-ply,SBD,M
Boys,74.84,DQ,Kaleb Madison,Joshua,71.67,,,,,Single-ply,SBD,M
Boys,74.84,DQ,Nathan Young,Burleson Centennial,70.58,183.7,,,,Single-ply,SBD,M
Boys,74.84,DQ,Tyler Thomas,Cleburne,67.59,138.35,,,,Single-ply,SBD,M
Boys,74.84,DQ,Dakota Runnels,Cleburne,69.85,181.44,,,,Single-ply,SBD,M
Boys,82.1,1,Brennan Coulter,Burleson,78.65,131.54,95.25,165.56,392.36,Single-ply,SBD,M
Boys,82.1,DQ,Jorge Hernandez,Cleburne,78.93,142.88,,,,Single-ply,SBD,M
Boys,82.1,DQ,Juan Ruiz,Cleburne,75.75,161.03,,,,Single-ply,SBD,M
Boys,82.1,DQ,Jake Donaldson,Burleson,81.28,158.76,,,,Single-ply,SBD,M
Boys,89.81,1,Isaac Thomas,Burleson,83.01,165.56,95.25,185.97,446.79,Single-ply,SBD,M
Boys,89.81,2,Tristan DeLeon,Burleson,85.91,167.83,102.06,156.49,426.38,Single-ply,SBD,M
Boys,89.81,DQ,Weston Donley,Joshua,87.54,,,,,Single-ply,SBD,M
Boys,109.77,1,Jessie Ries,Burleson Centennial,99.97,154.22,90.72,158.76,403.7,Single-ply,SBD,M
Boys,99.79,DQ,Sawyer Cole,Joshua,97.43,206.38,,,,Single-ply,SBD,M
Boys,109.77,1,Ronnie Burns-Lane,Burleson Centennial,103.51,192.78,136.08,192.78,521.63,Single-ply,SBD,M
Boys,109.77,2,Trey Schuman,Burleson,103.87,185.97,136.08,190.51,512.56,Single-ply,SBD,M
Boys,109.77,3,Bailey Mullins,Burleson,103.78,151.95,97.52,167.83,417.3,Single-ply,SBD,M
Boys,124.74,1,Colton Nolen,Burleson Centennial,114.67,217.72,131.54,226.8,576.06,Single-ply,SBD,M
Boys,124.74,2,Aaron Bribiesca,Burleson,122.56,165.56,104.33,174.63,444.52,Single-ply,SBD,M
Boys,124.74,DQ,Chris Robles,Cleburne,112.94,,,,,Single-ply,SBD,M
Boys,124.74+,1,Ray Winter,Burleson,135.62,195.04,122.47,217.72,535.24,Single-ply,SBD,M
Boys,124.74+,DQ,Manuel Maes,Cleburne,141.52,188.24,,,,Single-ply,SBD,M
