Division,WeightClassKg,Place,Name,Team,BodyweightKg,Best3SquatKg,Best3BenchKg,Best3DeadliftKg,TotalKg,Equipment,Event,Sex
Boys,55.79,1,Rodney Barnes,Everman,51.89,195.04,92.99,181.44,469.47,Single-ply,SBD,M
Boys,51.71,2,Carlos Reynoso,McKinney Boyd,51.62,136.08,79.38,163.29,378.75,Single-ply,SBD,M
Boys,51.71,3,Alejandro Cosio,Fort Worth North Side,50.62,129.27,65.77,145.15,340.19,Single-ply,SBD,M
Boys,51.71,4,Juan Torres #3,Carrollton Turner,51.71,131.54,77.11,129.27,337.93,Single-ply,SBD,M
Boys,51.71,5,Mohammad Ali,Mansfield Timberview,47.72,120.2,74.84,138.35,333.39,Single-ply,SBD,M
Boys,51.71,6,Damian Tamez,Fort Worth Boswell,48.44,113.4,65.77,140.61,319.78,Single-ply,SBD,M
Boys,51.71,7,Ricky Lopez,Frisco Centennial,46.9,124.74,61.23,124.74,310.71,Single-ply,SBD,M
Boys,51.71,NS,Javier Garcia #5,Lancaster,,,,,,Single-ply,SBD,M
Boys,51.71,NS,Arrington Holiday,Crowley,,,,,,Single-ply,SBD,M
Boys,51.71,DQ,Dakota Hutson,Azle,49.17,131.54,68.04,,,Single-ply,SBD,M
Boys,55.79,1,Brandon Thomas,McKinney North,55.34,181.44,95.25,199.58,476.27,Single-ply,SBD,M
Boys,55.79,2,Gerald Van Ess,McKinney North,55.61,181.44,97.52,174.63,453.59,Single-ply,SBD,M
Boys,55.79,3,Shang Bou,Fort Worth Paschal,54.88,161.03,95.25,174.63,430.91,Single-ply,SBD,M
Boys,55.79,4,Kitrell Phillips,Lucas Lovejoy,55.52,163.29,92.99,154.22,410.5,Single-ply,SBD,M
Boys,55.79,5,Jordan Estell,North Mesquite,55.52,142.88,77.11,183.7,403.7,Single-ply,SBD,M
Boys,55.79,6,Arnold Delgidillo,White Settlement Brewer,55.16,138.35,88.45,138.35,365.14,Single-ply,SBD,M
Boys,55.79,7,Cooper Gilliland,Royse City,55.61,129.27,70.31,151.95,351.53,Single-ply,SBD,M
Boys,55.79,8,Chris Delgado,Fort Worth Boswell,55.07,113.4,65.77,136.08,315.25,Single-ply,SBD,M
Boys,55.79,NS,Christian Castillo,Little Elm,,,,,,Single-ply,SBD,M
Boys,59.87,DQ,Logan Police,Frisco Wakeland,55.97,163.29,92.99,,,Single-ply,SBD,M
Boys,59.87,1,Ashton Williams,Everman,58.06,201.85,104.33,231.33,537.51,Single-ply,SBD,M
Boys,59.87,2,Michael Robason,Frisco Wakeland,59.69,217.72,108.86,195.04,521.63,Single-ply,SBD,M
Boys,59.87,3,Kyle Van Pelt,Mansfield Timberview,59.06,199.58,111.13,201.85,512.56,Single-ply,SBD,M
Boys,59.87,4,Armani Donaldson,Wichita Falls,59.51,201.85,113.4,183.7,498.95,Single-ply,SBD,M
Boys,67.13,5,Rafael Sandoval,Plano John Paul II,60.06,181.44,111.13,185.97,478.54,Single-ply,SBD,M
Boys,59.87,6,Margarito Lozano,Everman,59.33,190.51,108.86,167.83,467.2,Single-ply,SBD,M
Boys,59.87,7,Hayden Dibble,North Crowley,59.87,183.7,83.91,185.97,453.59,Single-ply,SBD,M
Boys,59.87,8,Chris Hairston,Cedar Hill,59.87,165.56,95.25,181.44,442.25,Single-ply,SBD,M
Boys,67.13,9,Andrew Wilson,Frisco Wakeland,59.96,179.17,86.18,170.1,435.45,Single-ply,SBD,M
Boys,67.13,10,Zamir Upsher,Keller Timber Creek,60.1,181.44,74.84,167.83,424.11,Single-ply,SBD,M
Boys,67.13,1,Kenny Stafford,Everman,66.77,249.48,124.74,229.06,603.28,Single-ply,SBD,M
Boys,67.13,2,Mathew Barrett,Mansfield Summit,66.04,215.46,108.86,231.33,555.65,Single-ply,SBD,M
Boys,67.13,3,Alex Ramsey,Royse City,66.77,213.19,122.47,208.65,544.31,Single-ply,SBD,M
Boys,67.13,4,Treveon Kindle,Fort Worth Boswell,65.59,201.85,120.2,192.78,514.83,Single-ply,SBD,M
Boys,67.13,5,Jeffrey Gage,Keller Timber Creek,65.59,181.44,115.67,213.19,510.29,Single-ply,SBD,M
Boys,67.13,6,Brandon Jackson,Cedar Hill,66.86,197.31,120.2,183.7,501.22,Single-ply,SBD,M
Boys,67.13,7,Kory Caviness,Mansfield,66.68,199.58,111.13,181.44,492.15,Single-ply,SBD,M
Boys,67.13,8,Deontre Baker,Denison,65.77,170.1,90.72,229.06,489.88,Single-ply,SBD,M
Boys,67.13,9,Davonte Owens,Mansfield,66,192.78,106.59,181.44,480.81,Single-ply,SBD,M
Boys,67.13,10,Darrius Sockwell,Cedar Hill,66.22,185.97,95.25,199.58,480.81,Single-ply,SBD,M
Boys,67.13,11,Demetrius Hutcherson,Azle,64.77,195.04,88.45,192.78,476.27,Single-ply,SBD,M
Boys,74.84,1,Bacardi Clark,Mesquite Horn,74.39,276.69,140.61,254.01,671.32,Single-ply,SBD,M
Boys,74.84,2,Jarod Hill,Everman,71.3,251.74,145.15,263.08,659.98,Single-ply,SBD,M
Boys,74.84,3,Chris Vega,Fort Worth North Side,72.85,229.06,154.22,231.33,614.62,Single-ply,SBD,M
Boys,74.84,4,Tumerius Flowers,Mansfield Summit,74.12,215.46,138.35,242.67,596.47,Single-ply,SBD,M
Boys,74.84,5,Shakeel Jones,Fort Worth South Hills,73.48,226.8,131.54,215.46,573.79,Single-ply,SBD,M
Boys,74.84,6,Trevor Wilson,Frisco Centennial,74.57,226.8,124.74,222.26,573.79,Single-ply,SBD,M
Boys,74.84,7,Dajuan Webb,Mansfield Summit,73.94,208.65,127.01,219.99,555.65,Single-ply,SBD,M
Boys,74.84,8,Desmond Jackson,Wichita Falls Rider,74.21,199.58,127.01,201.85,528.44,Single-ply,SBD,M
Boys,74.84,DQ,Gage McQuade,Fort Worth Boswell,73.12,,,,,Single-ply,SBD,M
Boys,74.84,DQ,Kyle Goss,Cedar Hill,70.67,199.58,,,,Single-ply,SBD,M
Boys,82.1,1,Mason Pierce,Plano John Paul II,81.28,235.87,185.97,258.55,680.39,Single-ply,SBD,M
Boys,82.1,2,Ramses Gomez,Garland Rowlett,81.37,224.53,161.03,213.19,598.74,Single-ply,SBD,M
Boys,82.1,3,Jesus Padilla,Fort Worth North Side,79.65,226.8,142.88,224.53,594.21,Single-ply,SBD,M
Boys,82.1,4,Jaylon Parmes,Everman,80.83,244.94,117.93,231.33,594.21,Single-ply,SBD,M
Boys,82.1,5,Michael Tsapos,Northwest Nelson,80.65,244.94,140.61,204.12,589.67,Single-ply,SBD,M
Boys,82.1,6,Sedrick Antwine,Cedar Hill,80.83,219.99,133.81,213.19,566.99,Single-ply,SBD,M
Boys,82.1,7,Anthony Pegues,Frisco Centennial,76.93,233.6,117.93,213.19,564.72,Single-ply,SBD,M
Boys,82.1,8,Sal Lopez,Fort Worth Paschal,80.83,231.33,115.67,210.92,557.92,Single-ply,SBD,M
Boys,82.1,9,Darrell Pinkston,Everman,76.11,240.4,113.4,192.78,546.58,Single-ply,SBD,M
Boys,82.1,DQ,Jacob Parker,Justin Northwest,80.56,226.8,127.01,,,Single-ply,SBD,M
Boys,89.81,1,Jared Loftis,Royse City,89.45,258.55,140.61,244.94,644.1,Single-ply,SBD,M
Boys,89.81,2,Doveon Dillard,Cedar Hill,88.45,244.94,167.83,224.53,637.3,Single-ply,SBD,M
Boys,89.81,3,Daniel Ramos,Mansfield Timberview,89.36,244.94,142.88,238.14,625.96,Single-ply,SBD,M
Boys,89.81,4,Timothy Hutchins,Cedar Hill,88.27,238.14,145.15,233.6,616.89,Single-ply,SBD,M
Boys,89.81,5,Joseph Benton,Mansfield Summit,88.63,217.72,138.35,244.94,601.01,Single-ply,SBD,M
Boys,89.81,6,Vincent Ajaegbu,North Crowley,88.36,226.8,129.27,238.14,594.21,Single-ply,SBD,M
Boys,89.81,7,Chase Coleman,North Crowley,89.36,206.38,136.08,240.4,582.87,Single-ply,SBD,M
Boys,89.81,8,Mason Ruzicka,Cedar Hill,89.27,226.8,122.47,217.72,566.99,Single-ply,SBD,M
Boys,89.81,DQ,Bowen Kirkbride,Denison,87.63,,,,,Single-ply,SBD,M
Boys,89.81,NS,Davion Smith,Lancaster,,,,,,Single-ply,SBD,M
Boys,89.81,DQ,Elliot Patton,McKinney North,89.09,226.8,147.42,,,Single-ply,SBD,M
Boys,99.79,1,Christian Hernandez,Everman,98.97,265.35,154.22,242.67,662.24,Single-ply,SBD,M
Boys,99.79,2,Keith Ngondo,Little Elm,93.62,263.08,136.08,258.55,657.71,Single-ply,SBD,M
Boys,99.79,3,Trevor Goree,Keller Timber Creek,92.53,272.16,138.35,204.12,614.62,Single-ply,SBD,M
Boys,99.79,4,Nico Rodriguez,Dallas Jesuit,97.98,210.92,154.22,244.94,610.08,Single-ply,SBD,M
Boys,99.79,5,Valentine Odidi,Mansfield Timberview,99.52,226.8,133.81,244.94,605.55,Single-ply,SBD,M
Boys,99.79,6,Blake Hampton,Keller,97.79,217.72,136.08,219.99,573.79,Single-ply,SBD,M
Boys,99.79,7,Ian Masakini,Keller Timber Creek,94.98,226.8,129.27,215.46,571.53,Single-ply,SBD,M
Boys,99.79,8,Jamie Wood #2,Denison,97.25,206.38,158.76,204.12,569.26,Single-ply,SBD,M
Boys,99.79,9,Guillermo Parham,Wichita Falls Rider,97.07,224.53,140.61,140.61,505.76,Single-ply,SBD,M
Boys,99.79,DQ,Stephen Evans #6,White Settlement Brewer,98.43,,,,,Single-ply,SBD,M
Boys,109.77,1,Jack Flowers,Frisco Wakeland,109.23,285.76,163.29,244.94,694,Single-ply,SBD,M
Boys,109.77,2,Sergio Orona,Denison,105.78,249.48,170.1,260.82,680.39,Single-ply,SBD,M
Boys,109.77,3,Landon Hallmark,Little Elm,107.5,272.16,136.08,260.82,669.05,Single-ply,SBD,M
Boys,109.77,4,Chase Dennis,Keller Timber Creek,105.14,276.69,145.15,226.8,648.64,Single-ply,SBD,M
Boys,109.77,5,Xavier Washington,Cedar Hill,108.59,235.87,151.95,226.8,614.62,Single-ply,SBD,M
Boys,109.77,6,Landon Todd,Azle,108.95,238.14,145.15,215.46,598.74,Single-ply,SBD,M
Boys,109.77,7,Quionte Jones,Cedar Hill,105.32,244.94,124.74,213.19,582.87,Single-ply,SBD,M
Boys,124.74,DQ,Logan Todd,Azle,109.95,,,,,Single-ply,SBD,M
Boys,109.77,DQ,Dylan Hebert,Keller,103.78,226.8,154.22,,,Single-ply,SBD,M
Boys,109.77,DQ,Simeon Onyeka,Richardson Berkner,108.32,,,,,Single-ply,SBD,M
Boys,124.74,1,Justin Bigelow,Denison,121.02,328.85,206.38,297.1,832.34,Single-ply,SBD,M
Boys,124.74,2,Joe Gonzales,Justin Northwest,120.11,306.17,167.83,244.94,718.94,Single-ply,SBD,M
Boys,124.74,3,Dominic Hill #2,Fort Worth Boswell,121.83,294.84,181.44,226.8,703.07,Single-ply,SBD,M
Boys,124.74,4,Korlis Johnson,Cedar Hill,115.21,276.69,142.88,254.01,673.58,Single-ply,SBD,M
Boys,124.74,5,Michael Nichols #3,North Mesquite,123.65,249.48,158.76,226.8,635.03,Single-ply,SBD,M
Boys,124.74,6,Daniel Martinez #18,White Settlement Brewer,122.38,254.01,142.88,235.87,632.76,Single-ply,SBD,M
Boys,124.74,DQ,Brayden Burgess,Wichita Falls Rider,121.74,242.67,142.88,,,Single-ply,SBD,M
Boys,124.74,DQ,Kye Esteves,Wichita Falls Rider,116.03,224.53,,,,Single-ply,SBD,M
Boys,124.74,DQ,Uche Ugwunze,McKinney North,124.19,,,,,Single-ply,SBD,M
Boys,124.74,DQ,Austin Horton,McKinney North,121.38,254.01,156.49,,,Single-ply,SBD,M
Boys,124.74+,1,Samir Zeqiraj,North Richland Hills Richland,170.01,283.5,213.19,254.01,750.7,Single-ply,SBD,M
Boys,124.74+,2,Maea Teuhema,Keller,153.4,272.16,204.12,249.48,725.75,Single-ply,SBD,M
Boys,124.74+,3,Trey Marks,Little Elm,145.69,288.03,170.1,226.8,684.92,Single-ply,SBD,M
Boys,124.74+,4,Cliffton Coffey,Cedar Hill,133.81,272.16,154.22,240.4,666.78,Single-ply,SBD,M
Boys,124.74+,5,Joey Stephens,Everman,139.53,276.69,172.37,215.46,664.51,Single-ply,SBD,M
Boys,124.74+,6,Corbin Bullington,Aledo,163.47,263.08,142.88,258.55,664.51,Single-ply,SBD,M
Boys,124.74+,7,Jake Baumert,Lucas Lovejoy,133.9,251.74,181.44,226.8,659.98,Single-ply,SBD,M
Boys,124.74+,NS,Aldren Kamara,North Mesquite,,,,,,Single-ply,SBD,M
Boys,124.74+,DQ,Cody Taylor,Royse City,127.19,238.14,142.88,,,Single-ply,SBD,M
Boys,124.74+,DQ,Duke Smith,Northwest Nelson,137.35,,,,,Single-ply,SBD,M
