Place,Name,State,WeightClassKg,BodyweightKg,BirthDate,Age,Squat1Kg,Squat2Kg,Squat3Kg,Best3SquatKg,Bench1Kg,Bench2Kg,Bench3Kg,Best3BenchKg,Deadlift1Kg,Deadlift2Kg,Deadlift3Kg,Best3DeadliftKg,TotalKg,Squat4Kg,Deadlift4Kg,Event,Equipment,Sex,Division,Tested
1,Sam Brown #5,FL,60,58.9,,22,77.5,85,-90,85,45,47.5,,47.5,105,115,120.5,120.5,253,,122.5,SBD,Raw,F,Juniors 20-23,Yes
1,Julie Najera,FL,67.5,64.7,,22,137.5,148,155,155,70,75,-78,75,140,147.5,155,155,385,,,SBD,Raw,F,Juniors 20-23,Yes
1,Margaret O'Reilly,FL,75,71.8,,22,117.5,125,132.5,132.5,65,67.5,72.5,72.5,127.5,135,140,140,345,,,SBD,Raw,F,Juniors 20-23,Yes
1,Mallory Hutchison,FL,110,103.8,,18,105,110,122.5,122.5,67.5,-72.5,-75,67.5,142.5,152.5,157.5,157.5,347.5,130,,SBD,Raw,F,Juniors 18-19,Yes
1,Rebecca Carter,FL,56,54.6,,55,92.5,-102.5,102.5,102.5,57.5,62.5,-65,62.5,102.5,110,112.5,112.5,277.5,,,SBD,Raw,F,Open,Yes
2,Michelle Silva,AL,56,54.9,,45,-62.5,62.5,67.5,67.5,-40,42.5,-50,42.5,80,85,90,90,200,,,SBD,Raw,F,Open,Yes
1,Isabel Shingler,FL,60,59.6,,26,135,142.5,150,150,-82.5,-82.5,82.5,82.5,137.5,145,155,155,387.5,,,SBD,Raw,F,Open,Yes
1,Julie Najera,FL,67.5,64.7,,22,137.5,148,155,155,70,75,-78,75,140,147.5,155,155,385,,,SBD,Raw,F,Open,Yes
1,Nicole Klotz,FL,75,72.4,,29,90,100,107.5,107.5,45,50,52.5,52.5,110,117.5,125,125,285,,,SBD,Raw,F,Open,Yes
2,Kerstin Purvis,FL,75,74.2,,30,90,95,102.5,102.5,67.5,72.5,77.5,77.5,87.5,100,-107.5,100,280,,,SBD,Raw,F,Open,Yes
3,Hunter Young #2,FL,75,67.7,,25,65,70,77.5,77.5,-45,47.5,-50,47.5,95,102.5,112.5,112.5,237.5,,,SBD,Raw,F,Open,Yes
1,Amanda Lens,FL,82.5,77.9,,26,135,145,157.5,157.5,82.5,87.5,-92.5,87.5,160,170,175,175,420,,,SBD,Raw,F,Open,Yes
1,Brittany Wooten,FL,90,83.7,,30,115,122.5,130,130,70,77.5,80,80,140,147.5,155,155,365,,,SBD,Raw,F,Open,Yes
1,Abigail Bush,FL,110,106.7,,38,160,177.5,187.5,187.5,92.5,95,,95,180,195,205,205,487.5,,,SBD,Raw,F,Open,Yes
2,Mallory Hutchison,FL,110,103.8,,18,105,110,122.5,122.5,67.5,-72.5,-75,67.5,142.5,152.5,157.5,157.5,347.5,130,,SBD,Raw,F,Open,Yes
3,Kelly Patterson,FL,110,100.2,,30,95,100,105,105,55,57.5,62.5,62.5,120,127.5,-137.5,127.5,295,,,SBD,Raw,F,Open,Yes
1,Katie Sprague,FL,110+,137.9,,30,155,165,-170,165,87.5,92.5,-95,92.5,160,172.5,-182.5,172.5,430,,,SBD,Raw,F,Open,Yes
2,Megan Urquhart,FL,110+,111.5,,36,95,105,110,110,60,62.5,-67.5,62.5,110,117.5,122.5,122.5,295,,,SBD,Raw,F,Open,Yes
1,Megan Urquhart,FL,110+,111.5,,36,95,105,110,110,60,62.5,-67.5,62.5,110,117.5,122.5,122.5,295,,,SBD,Raw,F,Submasters 35-39,Yes
1,Michelle Silva,AL,56,54.9,,45,-62.5,62.5,67.5,67.5,-40,42.5,-50,42.5,80,85,90,90,200,,,SBD,Raw,F,Masters 45-49,Yes
1,Rebecca Carter,FL,56,54.6,,55,92.5,-102.5,102.5,102.5,57.5,62.5,-65,62.5,102.5,110,112.5,112.5,277.5,,,SBD,Raw,F,Masters 55-59,Yes
1,Monique Santiago,FL,67.5,66.4,,40,80,85,90,90,47.5,50,52.5,52.5,107.5,115,120,120,262.5,,,SBD,Raw,F,Masters 40-44,Yes
1,Rachel Culberson,FL,67.5,61.3,,50,75,78,82.5,82.5,-50,50,-55,50,100,105,110,110,242.5,,,SBD,Raw,F,Masters 50-54,Yes
1,Claudia Wilson,FL,82.5,80.9,,47,102.5,107.5,110,110,62.5,65,-67.5,65,102.5,125,132.5,132.5,307.5,,,SBD,Raw,F,Masters 45-49,Yes
1,Laura Nimmo,FL,100,95.6,,45,90,95,100,100,45,47.5,-50,47.5,110,120,130,130,277.5,,,SBD,Raw,F,Masters 45-49,Yes
1,Jay Kaewrasamee,FL,75,72.3,,16,160,172.5,185,185,85,92.5,-97.5,92.5,192.5,210,-228,210,487.5,,,SBD,Raw,M,Juniors 16-17,Yes
2,Zeke Miller,FL,75,74.8,,16,137.5,147.5,160,160,82.5,87.5,95,95,145,155,165,165,420,,,SBD,Raw,M,Juniors 16-17,Yes
1,Caden Ronnlof,FL,75,69.9,,18,102.5,110,120,120,-92.5,92.5,97.5,97.5,142.5,152.5,-165,152.5,370,,,SBD,Raw,M,Juniors 18-19,Yes
1,Rodric Cabrera,FL,82.5,81.5,,16,190,200,215,215,132.5,140,147.5,147.5,-197.5,210,-225,210,572.5,,,SBD,Raw,M,Juniors 16-17,Yes
1,Makai Watters,FL,90,87.9,,16,162.5,175,185,185,112.5,120,-127.5,120,207.5,220,230,230,535,,,SBD,Raw,M,Juniors 16-17,Yes
1,Doug Keyes,FL,90,89.7,,23,160,170,175,175,107.5,115,-117.5,115,217.5,230,237.5,237.5,527.5,,,SBD,Raw,M,Juniors 20-23,Yes
2,Caleb Blackman,FL,90,83.5,,20,150,160,167.5,167.5,90,-95,100,100,190,200,-210,200,467.5,,,SBD,Raw,M,Juniors 20-23,Yes
1,Reece Lowery,FL,100,97.9,,17,205,210,215,215,142.5,147.5,150,150,237.5,247.5,255,255,620,,,SBD,Raw,M,Juniors 16-17,Yes
1,Ian Anderson,FL,110,107.2,,19,137.5,142.5,150,150,-100,105,107.5,107.5,175,180,187.5,187.5,445,,,SBD,Raw,M,Juniors 18-19,Yes
1,Jordan Standish,MA,110,108.9,,23,190,200,,200,135,142.5,-147.5,142.5,20,,,20,362.5,,,SBD,Raw,M,Juniors 20-23,Yes
1,Zachary Russo,FL,125,122,,23,190,202.5,210,210,107.5,117.5,122.5,122.5,210,230,240,240,572.5,,,SBD,Raw,M,Juniors 20-23,Yes
2,Isaiah Wentzel,FL,125,124.9,,20,177.5,197.5,215,215,-117.5,122.5,132.5,132.5,200,217.5,-232.5,217.5,565,,,SBD,Raw,M,Juniors 20-23,Yes
1,Rafael Vallejo III,FL,75,74.6,,44,-192.5,192.5,200,200,112.5,117.5,122.5,122.5,225,237.5,-245.5,237.5,560,,,SBD,Raw,M,Open,Yes
1,Jason Garcia,FL,82.5,80.5,,27,212.5,-217.5,-217.5,212.5,147.5,-157.5,-161,147.5,235,247.5,-255,247.5,607.5,,,SBD,Raw,M,Open,Yes
2,Joshua Linn,FL,82.5,79.5,,32,122.5,132.5,-137.5,132.5,82.5,-87.5,87.5,87.5,170,182.5,200,200,420,,,SBD,Raw,M,Open,Yes
1,Drew Gossett,AL,90,89.4,,35,152.5,-160,160,160,85,90,95,95,170,180,185,185,440,,,SBD,Raw,M,Open,Yes
1,Joe Brakebill,FL,100,98.1,,34,220,230,235,235,155,160,165,165,225,237.5,247.5,247.5,647.5,,,SBD,Raw,M,Open,Yes
2,Derek Brown,FL,100,96.7,,26,112.5,127.5,-145,127.5,90,-97.5,-102.5,90,140,-175,175,175,392.5,,,SBD,Raw,M,Open,Yes
1,Nicholas Feran,FL,110,105.8,,29,217.5,227.5,235,235,160,167.5,-175.5,167.5,250,265,-272.5,265,667.5,,,SBD,Raw,M,Open,Yes
2,George Lewis,FL,110,106.8,,32,142.5,147.5,152.5,152.5,110,115,117.5,117.5,175,190,197.5,197.5,467.5,,,SBD,Raw,M,Open,Yes
3,Jordan Standish,MA,110,108.9,,23,190,200,,200,135,142.5,-147.5,142.5,20,,,20,362.5,,,SBD,Raw,M,Open,Yes
1,Kyle Burden,FL,125,118.2,,31,182.5,192.5,202.5,202.5,145,152.5,-160,152.5,215,230,240,240,595,,,SBD,Raw,M,Open,Yes
2,Zachary Russo,FL,125,122,,23,190,202.5,210,210,107.5,117.5,122.5,122.5,210,230,240,240,572.5,,,SBD,Raw,M,Open,Yes
1,Craig Hogle,NM,75,72.6,,37,120,132.5,147.5,147.5,87.5,92.5,-100,92.5,165,177.5,190,190,430,,,SBD,Raw,M,Submasters 35-39,Yes
1,Zachary Prine,FL,90,88.4,,38,157.5,160,167.5,167.5,125,-132.5,-132.5,125,215,222.5,227.5,227.5,520,,,SBD,Raw,M,Submasters 35-39,Yes
2,Drew Gossett,AL,90,89.4,,35,152.5,-160,160,160,85,90,95,95,170,180,185,185,440,,,SBD,Raw,M,Submasters 35-39,Yes
1,Lee Helm,FL,110,109,,37,175,185,192.5,192.5,115,120,125,125,215,230,240.5,240.5,558,,250,SBD,Raw,M,Submasters 35-39,Yes
1,Michael Castanedo,LA,67.5,66.5,,51,-117.5,117.5,120,120,95,102.5,-105,102.5,112.5,-130,-130,112.5,335,,,SBD,Raw,M,Masters 50-54,Yes
1,Rafael Vallejo III,FL,75,74.6,,44,-192.5,192.5,200,200,112.5,117.5,122.5,122.5,225,237.5,-245.5,237.5,560,,,SBD,Raw,M,Masters 40-44,Yes
1,Al Eike,MS,82.5,81.3,,77,97.5,102.5,110,110,-45,45,,45,112.5,132.5,150,150,305,,,SBD,Raw,M,Masters 75-79,Yes
1,Josh Barabas,FL,100,99.5,,40,275,293,305,305,152.5,-162.5,-162.5,152.5,262.5,280,-295,280,737.5,,,SBD,Raw,M,Masters 40-44,Yes
1,David Suggs,FL,100,91.3,,58,77.5,-90,115,115,70,85,-97.5,85,100,125,140,140,340,,145,SBD,Raw,M,Masters 55-59,Yes
2,Ken Bellis,FL,100,93.1,,57,90,100,-107.5,100,57.5,-62.5,62.5,62.5,125,135,142.5,142.5,305,,,SBD,Raw,M,Masters 55-59,Yes
1,Maegan Samuelson,FL,75,67.7,,37,90,-92.5,-92.5,90,50,52.5,55,55,122.5,127.5,132.5,132.5,277.5,,,SBD,Wraps,F,Submasters 35-39,Yes
1,Scott Carter,FL,75,71.7,,17,200,-210,-210,200,125,130,,130,225,-237.5,-237.5,225,555,,,SBD,Wraps,M,Juniors 16-17,Yes
1,Ryan Butler,FL,125,118.4,,41,182.5,227.5,247.5,247.5,157.5,-177.5,177.5,177.5,217.5,250,-257.5,250,675,,,SBD,Wraps,M,Masters 40-44,Yes
1,Kerstin Purvis,FL,75,74.2,,30,,,,,67.5,72.5,77.5,77.5,,,,,77.5,,,B,Raw,F,Open,Yes
1,Katie Sprague,FL,110+,137.9,,30,,,,,87.5,92.5,-95,92.5,,,,,92.5,,,B,Raw,F,Open,Yes
1,Reece Lowery,FL,100,97.9,,17,,,,,142.5,147.5,150,150,,,,,150,,,B,Raw,M,Juniors 16-17,Yes
1,David Patterson #1,LA,75,74.7,,61,,,,,120,-127.5,-127.5,120,,,,,120,,,B,Raw,M,Masters 60-64,Yes
1,Morganne Whitesell,FL,82.5,75.1,,13,,,,,,,,,82.5,90,97.5,97.5,97.5,,,D,Raw,F,Juniors 13-15,Yes
1,Diane Brown,FL,44,43.3,,28,,,,,,,,,45,55,57.5,57.5,57.5,,60,D,Raw,F,Open,Yes
1,Katie Sprague,FL,110+,137.9,,30,,,,,,,,,160,172.5,-182.5,172.5,172.5,,,D,Raw,F,Open,Yes
G,Ham Rupp,FL,52,36.5,,6,,,,,,,,,30,37.5,47.5,47.5,47.5,,,D,Raw,M,Youth,Yes
1,Steve Kelly,FL,90,88.4,,59,,,,,,,,,125,137.5,147.5,147.5,147.5,,,D,Raw,M,Masters 55-59,Yes
1,Gracie Eason,AL,60,59.7,,14,,,,,-20,25,-30,25,50,60,65,65,90,,,BD,Raw,F,Juniors 13-15,Yes
1,David Suggs,FL,100,91.3,,58,,,,,70,85,-97.5,85,100,125,140,140,225,,145,BD,Raw,M,Masters 55-59,Yes
