Place,Name,Sex,BirthDate,Age,Equipment,Division,BodyweightKg,WeightClassKg,Bench1Kg,Bench2Kg,Bench3Kg,Bench4Kg,Best3BenchKg,Deadlift1Kg,Deadlift2Kg,Deadlift3Kg,Deadlift4Kg,Best3DeadliftKg,TotalKg,Event
1,Elizabeth Cotton,F,2005-03-02,16,Raw,FT-2-Ra,125,90+,40,45,-52.5,52.5,45,105,112.5,115,,115,160,BD
1,Roz Griffiths,F,1973-08-06,48,Raw,FM-2-Ra,88.3,90,40,45,50,,50,100,105,111,,111,161,BD
1,Sonia Albans,F,1977-01-11,44,Raw,FM-1-Ra,65.8,67.5,67.5,72.5,75,77.5,75,130,137.5,145,151,145,220,BD
1,John Cotton,M,1968-08-05,53,Raw,MM-3-Ra,124.5,125,170,177.5,186,190,186,-270,280,-290,291,280,466,BD
1,Paul Carter,M,1975-06-17,46,Raw,MM-2-Ra,114,125,135,142.5,150,,150,,,,,,150,B
1,Peter Battle,M,1937-01-14,84,Raw,MM-9-Ra,79.4,82.5,40,45,-50,50,45,,,,,,45,B
1,Chris Jarrett,M,1989-03-31,32,Raw,MOpe-Ra,125,125,125,132.5,140,,140,,,,,,140,B
1,Andy Otter,M,1978-03-01,43,Raw,MM-1-Ra,86.4,90,,,,,,190,205,215,,215,215,D
1,Sean Smith,M,1986-04-10,35,Raw,MOpe-Ra,76,82.5,,,,,,240,-255,-255,,240,240,D
1,Glen Smith #1,M,1986-03-31,35,Raw,MOpe-Ra,89,90,,,,,,240,255,260,,260,260,D
1,Rick Williamson,M,1990-12-01,30,Raw,MOpe-Ra,122,125,,,,,,-260,260,280,290,280,280,D
